rtl/src/dump.vcd
$date
	Fri May 10 18:20:57 2024
$end
$version
	Icarus Verilog
$end
$timescale
	1ps
$end
$scope module address_decoder $end
$var wire 1 ! cpu_ack $end
$var wire 32 " cpu_addr [31:0] $end
$var wire 4 # cpu_byte_en [3:0] $end
$var wire 32 $ cpu_rdata [31:0] $end
$var wire 1 % cpu_req $end
$var wire 32 & cpu_wdata [31:0] $end
$var wire 1 ' cpu_write $end
$upscope $end
$scope module data_cache $end
$var wire 1 ( clock $end
$var wire 32 ) cpu_address [31:0] $end
$var wire 4 * cpu_byte_en [3:0] $end
$var wire 1 + cpu_request $end
$var wire 32 , cpu_wdata [31:0] $end
$var wire 1 - cpu_write $end
$var wire 1 . hit $end
$var wire 1 / mem_ack $end
$var wire 32 0 mem_rdata [31:0] $end
$var wire 1 1 reset $end
$var wire 20 2 latched_address_tag [19:0] $end
$var wire 10 3 latched_address_index [9:0] $end
$var wire 10 4 cpu_address_index [9:0] $end
$var parameter 2 5 STATE_IDLE $end
$var parameter 2 6 STATE_READ $end
$var parameter 2 7 STATE_WRITE $end
$var reg 32 8 cache_data [31:0] $end
$var reg 20 9 cache_tag [19:0] $end
$var reg 1 : cache_valid $end
$var reg 1 ; cpu_ack $end
$var reg 32 < cpu_rdata [31:0] $end
$var reg 32 = latched_address [31:0] $end
$var reg 4 > latched_byte_en [3:0] $end
$var reg 1 ? latched_read $end
$var reg 32 @ latched_wdata [31:0] $end
$var reg 1 A latched_write $end
$var reg 32 B mem_address [31:0] $end
$var reg 4 C mem_byte_en [3:0] $end
$var reg 1 D mem_request $end
$var reg 32 E mem_wdata [31:0] $end
$var reg 1 F mem_write $end
$var reg 2 G next_state [1:0] $end
$var reg 2 H this_state [1:0] $end
$upscope $end
$scope module seven_segment $end
$var wire 1 I clock $end
$var wire 24 J seven_segment [23:0] $end
$var wire 8 K seven_segment_brightness [7:0] $end
$var reg 7 L HEX0 [6:0] $end
$var reg 7 M HEX1 [6:0] $end
$var reg 7 N HEX2 [6:0] $end
$var reg 7 O HEX3 [6:0] $end
$var reg 7 P HEX4 [6:0] $end
$var reg 7 Q HEX5 [6:0] $end
$var reg 8 R counter [7:0] $end
$upscope $end
$scope module tb $end
$var wire 1 S DRAM_CKE $end
$var wire 1 T DRAM_CS_N $end
$var wire 16 U DRAM_DQ [15:0] $end
$var wire 3 V DRAM_cmd [2:0] $end
$var wire 2 W DRAM_DQM [1:0] $end
$var wire 1 X DRAM_CLK $end
$var wire 2 Y DRAM_BA [1:0] $end
$var wire 13 Z DRAM_ADDR [12:0] $end
$var reg 1 [ clock $end
$var reg 1 \ reset $end
$scope module chip_top_inst $end
$var wire 1 S DRAM_CKE $end
$var wire 1 X DRAM_CLK $end
$var wire 1 T DRAM_CS_N $end
$var wire 16 ] DRAM_DQ [15:0] $end
$var wire 1 [ clock $end
$var wire 1 \ reset $end
$var wire 1 ^ sdram_write $end
$var wire 32 _ sdram_wdata [31:0] $end
$var wire 1 ` sdram_request $end
$var wire 32 a sdram_rdata [31:0] $end
$var wire 4 b sdram_byte_en [3:0] $end
$var wire 26 c sdram_address [25:0] $end
$var wire 1 d sdram_ack $end
$var wire 1 e iram_write $end
$var wire 32 f iram_wdata [31:0] $end
$var wire 1 g iram_request $end
$var wire 32 h iram_rdata [31:0] $end
$var wire 4 i iram_byte_en [3:0] $end
$var wire 16 j iram_address [15:0] $end
$var wire 1 k iram_ack $end
$var wire 32 l instr_data [31:0] $end
$var wire 32 m instr_address [31:0] $end
$var wire 1 n cpu_write $end
$var wire 32 o cpu_wdata [31:0] $end
$var wire 1 p cpu_request $end
$var wire 32 q cpu_rdata [31:0] $end
$var wire 4 r cpu_byte_en [3:0] $end
$var wire 32 s cpu_address [31:0] $end
$var wire 1 t cpu_ack $end
$var wire 1 u _unused_ok $end
$var wire 1 v DRAM_WE_N $end
$var wire 1 w DRAM_UDQM $end
$var wire 1 x DRAM_RAS_N $end
$var wire 1 y DRAM_LDQM $end
$var wire 1 z DRAM_CAS_N $end
$var wire 2 { DRAM_BA [1:0] $end
$var wire 13 | DRAM_ADDR [12:0] $end
$scope module bus_arbiter_inst $end
$var wire 1 [ clock $end
$var wire 1 t cpu_ack $end
$var wire 32 } cpu_rdata [31:0] $end
$var wire 4 ~ iram_byte_en [3:0] $end
$var wire 32 !" iram_wdata [31:0] $end
$var wire 1 e iram_write $end
$var wire 1 \ reset $end
$var wire 4 "" sdram_byte_en [3:0] $end
$var wire 32 #" sdram_wdata [31:0] $end
$var wire 1 ^ sdram_write $end
$var wire 32 $" sdram_rdata [31:0] $end
$var wire 26 %" sdram_address [25:0] $end
$var wire 1 d sdram_ack $end
$var wire 32 &" iram_rdata [31:0] $end
$var wire 16 '" iram_address [15:0] $end
$var wire 1 k iram_ack $end
$var wire 1 n cpu_write $end
$var wire 32 (" cpu_wdata [31:0] $end
$var wire 1 p cpu_request $end
$var wire 4 )" cpu_byte_en [3:0] $end
$var wire 32 *" cpu_address [31:0] $end
$var reg 32 +" address [31:0] $end
$var reg 4 ," byte_en [3:0] $end
$var reg 1 g iram_request $end
$var reg 2 -" next_bus_master [1:0] $end
$var reg 32 ." rdata [31:0] $end
$var reg 1 /" request $end
$var reg 1 ` sdram_request $end
$var reg 2 0" this_bus_master [1:0] $end
$var reg 32 1" wdata [31:0] $end
$var reg 1 2" write $end
$upscope $end
$scope module cpu_inst $end
$var wire 1 [ clock $end
$var wire 1 t cpu_ack $end
$var wire 32 3" cpu_rdata [31:0] $end
$var wire 1 \ reset $end
$var wire 1 4" stall $end
$var wire 32 5" p3_out [31:0] $end
$var wire 2 6" p3_opx [1:0] $end
$var wire 7 7" p3_op [6:0] $end
$var wire 32 8" p3_jump_addr [31:0] $end
$var wire 1 9" p3_jump $end
$var wire 5 :" p3_dest_reg [4:0] $end
$var wire 32 ;" p3_data_b [31:0] $end
$var wire 32 <" p3_data_a [31:0] $end
$var wire 32 =" p3_addr_b [31:0] $end
$var wire 32 >" p3_addr_a [31:0] $end
$var wire 2 ?" p2_src_data_b [1:0] $end
$var wire 2 @" p2_src_data_a [1:0] $end
$var wire 2 A" p2_src_addr_b [1:0] $end
$var wire 2 B" p2_src_addr_a [1:0] $end
$var wire 5 C" p2_reg_b [4:0] $end
$var wire 5 D" p2_reg_a [4:0] $end
$var wire 32 E" p2_literal [31:0] $end
$var wire 32 F" p1_pc [31:0] $end
$var wire 32 G" instr_data [31:0] $end
$var wire 32 H" instr_address [31:0] $end
$var wire 1 n cpu_write $end
$var wire 32 I" cpu_wdata [31:0] $end
$var wire 1 p cpu_request $end
$var wire 4 J" cpu_byte_en [3:0] $end
$var wire 32 K" cpu_address [31:0] $end
$scope module cpu_alu_inst $end
$var wire 1 L" clock $end
$var wire 1 t cpu_ack $end
$var wire 32 M" cpu_rdata [31:0] $end
$var wire 1 N" interupt $end
$var wire 32 O" p3_pc [31:0] $end
$var wire 1 \ reset $end
$var wire 2 P" p3_opx [1:0] $end
$var wire 7 Q" p3_op [6:0] $end
$var wire 32 R" p3_data_b [31:0] $end
$var wire 32 S" p3_data_a [31:0] $end
$var wire 32 T" p3_addr_b [31:0] $end
$var wire 32 U" p3_addr_a [31:0] $end
$var wire 1 V" compare_ltu $end
$var wire 1 W" compare_lt $end
$var wire 1 X" compare_eq $end
$var reg 32 Y" cpu_address [31:0] $end
$var reg 4 Z" cpu_byte_en [3:0] $end
$var reg 1 p cpu_request $end
$var reg 32 [" cpu_wdata [31:0] $end
$var reg 1 n cpu_write $end
$var reg 1 \" interrupt_enable $end
$var reg 32 ]" interrupt_pc [31:0] $end
$var reg 1 ^" misaligned_address $end
$var reg 32 _" next_interrupt_pc [31:0] $end
$var reg 1 `" next_interupt_enable $end
$var reg 1 9" p3_jump $end
$var reg 32 a" p3_jump_addr [31:0] $end
$var reg 32 b" p3_out [31:0] $end
$upscope $end
$scope module cpu_data_mux_inst $end
$var wire 1 c" bypass_a $end
$var wire 1 d" bypass_b $end
$var wire 1 [ clock $end
$var wire 32 e" p3_out [31:0] $end
$var wire 1 \ reset $end
$var wire 1 4" stall $end
$var wire 1 f" wren $end
$var wire 32 g" reg_b [31:0] $end
$var wire 32 h" reg_a [31:0] $end
$var wire 5 i" p3_dest_reg [4:0] $end
$var wire 2 j" p2_src_data_b [1:0] $end
$var wire 2 k" p2_src_data_a [1:0] $end
$var wire 2 l" p2_src_addr_b [1:0] $end
$var wire 2 m" p2_src_addr_a [1:0] $end
$var wire 5 n" p2_reg_b [4:0] $end
$var wire 5 o" p2_reg_a [4:0] $end
$var wire 32 p" p2_literal [31:0] $end
$var wire 32 q" p1_pc [31:0] $end
$var reg 32 r" p2_addr_a [31:0] $end
$var reg 32 s" p2_addr_b [31:0] $end
$var reg 32 t" p2_data_a [31:0] $end
$var reg 32 u" p2_data_b [31:0] $end
$var reg 32 v" p3_addr_a [31:0] $end
$var reg 32 w" p3_addr_b [31:0] $end
$var reg 32 x" p3_data_a [31:0] $end
$var reg 32 y" p3_data_b [31:0] $end
$scope module cpu_regfile_a $end
$var wire 1 [ clock $end
$var wire 32 z" data [31:0] $end
$var wire 32 {" q [31:0] $end
$var wire 1 f" wren $end
$var wire 5 |" wraddress [4:0] $end
$var wire 5 }" rdaddress [4:0] $end
$var integer 32 ~" i [31:0] $end
$upscope $end
$scope module cpu_regfile_b $end
$var wire 1 [ clock $end
$var wire 32 !# data [31:0] $end
$var wire 32 "# q [31:0] $end
$var wire 1 f" wren $end
$var wire 5 ## wraddress [4:0] $end
$var wire 5 $# rdaddress [4:0] $end
$var integer 32 %# i [31:0] $end
$upscope $end
$upscope $end
$scope module cpu_decoder_inst $end
$var wire 1 [ clock $end
$var wire 5 &# p2_reg_a [4:0] $end
$var wire 5 '# p2_reg_b [4:0] $end
$var wire 1 9" p3_jump $end
$var wire 1 \ reset $end
$var wire 1 4" stall $end
$var wire 32 (# lit_s21 [31:0] $end
$var wire 32 )# lit_s13d [31:0] $end
$var wire 32 *# lit_s13 [31:0] $end
$var wire 6 +# instr_k [5:0] $end
$var wire 3 ,# instr_i [2:0] $end
$var wire 32 -# instr_data [31:0] $end
$var wire 5 .# instr_d [4:0] $end
$var wire 8 /# instr_c [7:0] $end
$var wire 5 0# instr_b [4:0] $end
$var wire 5 1# instr_a [4:0] $end
$var reg 5 2# p2_dest_reg [4:0] $end
$var reg 32 3# p2_literal [31:0] $end
$var reg 7 4# p2_op [6:0] $end
$var reg 2 5# p2_opx [1:0] $end
$var reg 2 6# p2_src_addr_a [1:0] $end
$var reg 2 7# p2_src_addr_b [1:0] $end
$var reg 2 8# p2_src_data_a [1:0] $end
$var reg 2 9# p2_src_data_b [1:0] $end
$var reg 5 :# p3_dest_reg [4:0] $end
$var reg 7 ;# p3_op [6:0] $end
$var reg 2 <# p3_opx [1:0] $end
$upscope $end
$scope module cpu_pc_inst $end
$var wire 1 [ clock $end
$var wire 1 9" p3_jump $end
$var wire 32 =# p3_jump_addr [31:0] $end
$var wire 1 \ reset $end
$var wire 1 4" stall $end
$var reg 32 ># instr_address [31:0] $end
$var reg 32 ?# p1_pc [31:0] $end
$var reg 32 @# p2_pc [31:0] $end
$upscope $end
$upscope $end
$scope module instruction_ram_inst $end
$var wire 1 [ clock $end
$var wire 32 A# instr_address [31:0] $end
$var wire 16 B# iram_address [15:0] $end
$var wire 4 C# iram_byte_en [3:0] $end
$var wire 1 g iram_request $end
$var wire 32 D# iram_wdata [31:0] $end
$var wire 1 e iram_write $end
$var wire 32 E# iram_rdata [31:0] $end
$var wire 1 F# _unused_ok $end
$var reg 32 G# instr_data [31:0] $end
$var reg 1 k iram_ack $end
$var reg 32 H# rdata [31:0] $end
$upscope $end
$scope module sdram_controller_inst $end
$var wire 1 S DRAM_CKE $end
$var wire 1 T DRAM_CS_N $end
$var wire 16 I# DRAM_DQ [15:0] $end
$var wire 1 [ clock $end
$var wire 1 \ reset $end
$var wire 26 J# sdram_address [25:0] $end
$var wire 4 K# sdram_byte_en [3:0] $end
$var wire 1 ` sdram_request $end
$var wire 32 L# sdram_wdata [31:0] $end
$var wire 1 ^ sdram_write $end
$var wire 32 M# sdram_rdata [31:0] $end
$var wire 1 v DRAM_WE_N $end
$var wire 1 w DRAM_UDQM $end
$var wire 1 x DRAM_RAS_N $end
$var wire 1 y DRAM_LDQM $end
$var wire 1 z DRAM_CAS_N $end
$var parameter 3 N# CMD_ACT $end
$var parameter 3 O# CMD_MODE $end
$var parameter 3 P# CMD_NOP $end
$var parameter 3 Q# CMD_PRECHARGE $end
$var parameter 3 R# CMD_READ $end
$var parameter 3 S# CMD_REFRESH $end
$var parameter 3 T# CMD_WRITE $end
$var parameter 32 U# STATE_IDLE $end
$var parameter 32 V# STATE_READ $end
$var parameter 32 W# STATE_REFRESH $end
$var parameter 32 X# STATE_RESET $end
$var parameter 32 Y# STATE_VGA $end
$var parameter 32 Z# STATE_WRITE $end
$var reg 13 [# DRAM_ADDR [12:0] $end
$var reg 2 \# DRAM_BA [1:0] $end
$var reg 1 ]# next_ack $end
$var reg 13 ^# next_addr [12:0] $end
$var reg 2 _# next_ba [1:0] $end
$var reg 3 `# next_cmd [2:0] $end
$var reg 7 a# next_counter [6:0] $end
$var reg 16 b# next_dq [15:0] $end
$var reg 1 c# next_dqe $end
$var reg 2 d# next_dqm [1:0] $end
$var reg 10 e# next_refresh_counter [9:0] $end
$var reg 1 f# next_refresh_needed $end
$var reg 3 g# next_state [2:0] $end
$var reg 16 h# reg0_dq [15:0] $end
$var reg 16 i# reg1_dq [15:0] $end
$var reg 1 d sdram_ack $end
$var reg 3 j# this_cmd [2:0] $end
$var reg 7 k# this_counter [6:0] $end
$var reg 16 l# this_dq [15:0] $end
$var reg 1 m# this_dqe $end
$var reg 2 n# this_dqm [1:0] $end
$var reg 5 o# this_read_pipeline [4:0] $end
$var reg 10 p# this_refresh_counter [9:0] $end
$var reg 1 q# this_refresh_needed $end
$var reg 3 r# this_state [2:0] $end
$upscope $end
$upscope $end
$scope module i_sdram $end
$var wire 1 s# Active_enable $end
$var wire 13 t# Addr [12:0] $end
$var wire 1 u# Aref_enable $end
$var wire 2 v# Ba [1:0] $end
$var wire 1 w# Burst_length_1 $end
$var wire 1 x# Burst_length_2 $end
$var wire 1 y# Burst_length_4 $end
$var wire 1 z# Burst_length_8 $end
$var wire 1 {# Burst_length_f $end
$var wire 1 |# Burst_term $end
$var wire 1 }# Cas_n $end
$var wire 1 S Cke $end
$var wire 1 X Clk $end
$var wire 1 T Cs_n $end
$var wire 1 ~# Debug $end
$var wire 16 !$ Dq [15:0] $end
$var wire 1 "$ Dq_chk $end
$var wire 2 #$ Dqm [1:0] $end
$var wire 1 $$ Mode_reg_enable $end
$var wire 1 %$ Prech_enable $end
$var wire 1 &$ Ras_n $end
$var wire 1 '$ Read_enable $end
$var wire 1 ($ We_n $end
$var wire 1 )$ Write_enable $end
$var wire 4 *$ dbg_command0 [3:0] $end
$var wire 4 +$ dbg_command1 [3:0] $end
$var wire 4 ,$ dbg_command2 [3:0] $end
$var wire 4 -$ dbg_command3 [3:0] $end
$var wire 1 .$ Write_burst_mode $end
$var wire 3 /$ Cas_latency [2:0] $end
$var parameter 32 0$ ADDR_BITS $end
$var parameter 32 1$ BA_BITS $end
$var parameter 32 2$ COL_BITS $end
$var parameter 32 3$ DM_BITS $end
$var parameter 32 4$ DQ_BITS $end
$var parameter 32 5$ ROW_BITS $end
$var parameter 33 6$ mem_sizes $end
$var real 1 7$ tAC1 $end
$var real 1 8$ tAC2 $end
$var real 1 9$ tAC3 $end
$var real 1 :$ tAH $end
$var real 1 ;$ tAS $end
$var real 1 <$ tCH $end
$var real 1 =$ tCK $end
$var real 1 >$ tCK1_min $end
$var real 1 ?$ tCK2_min $end
$var real 1 @$ tCK3 $end
$var real 1 A$ tCK3_min $end
$var real 1 B$ tCKH $end
$var real 1 C$ tCKS $end
$var real 1 D$ tCL $end
$var real 1 E$ tCMH $end
$var real 1 F$ tCMS $end
$var real 1 G$ tDH $end
$var real 1 H$ tDS $end
$var real 1 I$ tHZ1 $end
$var real 1 J$ tHZ2 $end
$var real 1 K$ tHZ3 $end
$var real 1 L$ tMRD $end
$var real 1 M$ tOH $end
$var real 1 N$ tRAS $end
$var real 1 O$ tRC $end
$var real 1 P$ tRCD $end
$var real 1 Q$ tRFC $end
$var real 1 R$ tRP $end
$var real 1 S$ tRRD $end
$var real 1 T$ tWRa $end
$var real 1 U$ tWRm $end
$var reg 1 V$ Act_b0 $end
$var reg 1 W$ Act_b1 $end
$var reg 1 X$ Act_b2 $end
$var reg 1 Y$ Act_b3 $end
$var reg 13 Z$ B0_row_addr [12:0] $end
$var reg 13 [$ B1_row_addr [12:0] $end
$var reg 13 \$ B2_row_addr [12:0] $end
$var reg 13 ]$ B3_row_addr [12:0] $end
$var reg 2 ^$ Bank [1:0] $end
$var reg 10 _$ Burst_counter [9:0] $end
$var reg 1 `$ CkeZ $end
$var reg 10 a$ Col [9:0] $end
$var reg 10 b$ Col_brst [9:0] $end
$var reg 10 c$ Col_temp [9:0] $end
$var reg 1 d$ Data_in_enable $end
$var reg 1 e$ Data_out_enable $end
$var reg 16 f$ Dq_dqm [15:0] $end
$var reg 16 g$ Dq_reg [15:0] $end
$var reg 2 h$ Dqm_reg0 [1:0] $end
$var reg 2 i$ Dqm_reg1 [1:0] $end
$var reg 64 j$ MRD_chk [63:0] $end
$var reg 13 k$ Mode_reg [12:0] $end
$var reg 1 l$ Pc_b0 $end
$var reg 1 m$ Pc_b1 $end
$var reg 1 n$ Pc_b2 $end
$var reg 1 o$ Pc_b3 $end
$var reg 2 p$ Prev_bank [1:0] $end
$var reg 64 q$ RAS_chk0 [63:0] $end
$var reg 64 r$ RAS_chk1 [63:0] $end
$var reg 64 s$ RAS_chk2 [63:0] $end
$var reg 64 t$ RAS_chk3 [63:0] $end
$var reg 64 u$ RCD_chk0 [63:0] $end
$var reg 64 v$ RCD_chk1 [63:0] $end
$var reg 64 w$ RCD_chk2 [63:0] $end
$var reg 64 x$ RCD_chk3 [63:0] $end
$var reg 64 y$ RC_chk0 [63:0] $end
$var reg 64 z$ RC_chk1 [63:0] $end
$var reg 64 {$ RC_chk2 [63:0] $end
$var reg 64 |$ RC_chk3 [63:0] $end
$var reg 64 }$ RFC_chk [63:0] $end
$var reg 64 ~$ RP_chk0 [63:0] $end
$var reg 64 !% RP_chk1 [63:0] $end
$var reg 64 "% RP_chk2 [63:0] $end
$var reg 64 #% RP_chk3 [63:0] $end
$var reg 64 $% RRD_chk [63:0] $end
$var reg 2 %% RW_interrupt_bank [1:0] $end
$var reg 13 &% Row [12:0] $end
$var reg 1 '% Sys_clk $end
$var reg 64 (% tAC [63:0] $end
$var reg 64 )% tHZ [63:0] $end
$scope task Burst_decode $end
$upscope $end
$upscope $end
$upscope $end
$enddefinitions $end
$comment Show the parameter values. $end
$dumpall
r15 U$
r7.5 T$
r2 S$
r20 R$
r66 Q$
r20 P$
r66 O$
r44 N$
r2.7 M$
r2 L$
r5.4 K$
r6 J$
r0 I$
r1.5 H$
r0.8 G$
r1.5 F$
r0.8 E$
r2.5 D$
r1.5 C$
r0.8 B$
r7.5 A$
r7.5 @$
r10 ?$
r0 >$
r7.5 =$
r2.5 <$
r1.5 ;$
r0.8 :$
r5.4 9$
r6 8$
r0 7$
b11111111111111111111111 6$
b1101 5$
b10000 4$
b10 3$
b1010 2$
b10 1$
b1101 0$
b11 Z#
b101 Y#
b0 X#
b100 W#
b10 V#
b1 U#
b100 T#
b1 S#
b101 R#
b10 Q#
b111 P#
b0 O#
b11 N#
b10 7
b1 6
b0 5
$end
#0
$dumpvars
bx )%
bx (%
x'%
bx &%
bx %%
b0 $%
b0 #%
b0 "%
b0 !%
b0 ~$
b0 }$
b0 |$
b0 {$
b0 z$
b0 y$
b0 x$
b0 w$
b0 v$
b0 u$
b0 t$
b0 s$
b0 r$
b0 q$
bx p$
0o$
0n$
0m$
0l$
bx k$
b0 j$
bx i$
bx h$
bz g$
bx f$
0e$
0d$
bx c$
bx b$
bx a$
x`$
bx _$
bx ^$
bx ]$
bx \$
bx [$
bx Z$
1Y$
1X$
1W$
1V$
bx /$
x.$
bx -$
bx ,$
bx +$
bx *$
x)$
x($
x'$
x&$
x%$
x$$
bx #$
0"$
bx !$
1~#
x}#
x|#
x{#
xz#
xy#
xx#
xw#
bx v#
xu#
bx t#
xs#
bx r#
xq#
bx p#
bx o#
bx n#
xm#
bx l#
bx k#
bx j#
bx i#
bx h#
b0 g#
0f#
b0 e#
b11 d#
0c#
bx b#
b0 a#
b111 `#
b0 _#
b0 ^#
0]#
bx \#
bx [#
bx M#
b0 L#
b0 K#
b0 J#
bx I#
bx H#
bx G#
0F#
bx E#
b0 D#
b0 C#
b0 B#
b11111111111111110000000000000000 A#
bx @#
bx ?#
b11111111111111110000000000000000 >#
bx =#
bx <#
bx ;#
bx :#
b0 9#
b0 8#
b0 7#
b0 6#
b0 5#
b0 4#
bx 3#
b0 2#
bx 1#
bx 0#
bx /#
bx .#
bx -#
bx ,#
bx +#
bx *#
bx )#
bx00 (#
bx '#
bx &#
b100000 %#
bx $#
bx ##
bx "#
bx !#
b100000 ~"
bx }"
bx |"
bx {"
bx z"
bx y"
bx x"
bx w"
bx v"
b0 u"
b0 t"
b0 s"
b0 r"
bx q"
bx p"
bx o"
bx n"
b0 m"
b0 l"
b0 k"
b0 j"
bx i"
bx h"
bx g"
0f"
bx e"
xd"
xc"
bx b"
bx a"
x`"
bx _"
0^"
bx ]"
x\"
bx ["
bx Z"
bx Y"
xX"
xW"
xV"
bx U"
bx T"
bx S"
bx R"
bx Q"
bx P"
bz O"
zN"
bx M"
zL"
bx K"
bx J"
bx I"
b11111111111111110000000000000000 H"
bx G"
bx F"
bx E"
bx D"
bx C"
b0 B"
b0 A"
b0 @"
b0 ?"
bx >"
bx ="
bx <"
bx ;"
bx :"
09"
bx 8"
bx 7"
bx 6"
bx 5"
04"
bx 3"
02"
b0 1"
bx 0"
0/"
bx ."
b0 -"
b0 ,"
b0 +"
bx *"
bx )"
bx ("
b0 '"
bx &"
b0 %"
bx $"
b0 #"
b0 ""
b0 !"
b0 ~
bx }
bx |
bx {
xz
xy
xx
xw
xv
0u
xt
bx s
bx r
bx q
0p
bx o
0n
b11111111111111110000000000000000 m
bx l
xk
b0 j
b0 i
bx h
0g
b0 f
0e
xd
b0 c
b0 b
bx a
0`
b0 _
0^
bx ]
1\
0[
bx Z
bx Y
0X
bx W
bx V
bx U
0T
1S
b0 R
bx Q
bx P
bx O
bx N
bx M
bx L
bz K
bz J
zI
bx H
b0 G
0F
b0 E
0D
b0 C
b0 B
xA
bx @
x?
bx >
bx =
b0 <
0;
x:
bx 9
bx 8
bz 4
bx 3
bx 2
z1
bz 0
z/
x.
z-
bz ,
z+
bz *
bz )
z(
z'
bz &
z%
bz $
bz #
bz "
z!
$end
#5000
0s#
0u#
0'$
0|#
0$$
0%$
0)$
1&$
1}#
1($
b11111111111111110000000000000100 F"
b11111111111111110000000000000100 q"
b11111111111111110000000000000100 ?#
0d"
0c"
b0 5"
b0 b"
b0 e"
b0 z"
b0 !#
b0 s
b0 *"
b0 K"
b0 Y"
b0 h
b0 &"
b0 E#
0t
bz U
bz ]
bz I#
bz !$
1y
b11 W
b11 #$
1w
1x
1z
b111 V
1v
b0 e#
b0 _#
b0 ^#
b0 a#
b11111111111111110000000000000000 @#
b0 :"
b0 i"
b0 |"
b0 ##
b0 :#
b0 6"
b0 P"
b0 <#
b0 7"
b0 Q"
b0 ;#
b0 ="
b0 T"
b0 w"
b0 >"
b0 U"
b0 v"
0V"
0W"
1X"
b0 ;"
b0 R"
b0 y"
b0 <"
b0 S"
b0 x"
b0 0"
0k
0q#
b0 p#
0d
0m#
b11 n#
b111 j#
b0 Y
b0 {
b0 \#
b0 v#
b0 Z
b0 |
b0 [#
b0 t#
b0 r#
b0 k#
1`$
1X
1[
#10000
0'%
0X
0[
#15000
b0xxxx o#
bz h#
b1 j$
b11 i$
b1 -$
1'%
1X
1[
#20000
0'%
0X
0[
#25000
b11111111111111110000000000001000 F"
b11111111111111110000000000001000 q"
b11111111111111110000000000001000 ?#
b10 `#
b11111111111111110000000000000100 @#
b1 p#
b0xxx o#
bz i#
bx Y
bx {
bx \#
bx v#
bx Z
bx |
bx [#
bx t#
b1 k#
b10 j$
b11 h$
b1 ,$
1'%
1X
1[
b11111111111111110000000000001000 m
b11111111111111110000000000001000 H"
b11111111111111110000000000001000 >#
b11111111111111110000000000001000 A#
b10 e#
b0 _#
b10000000000 ^#
b10 a#
0\
#30000
0'%
0X
0[
#35000
1%$
0|#
0&$
0($
0x
b10 V
0v
b11 e#
b111 `#
bx _#
bx ^#
b11 a#
b11111111111111110000000000001100 m
b11111111111111110000000000001100 H"
b11111111111111110000000000001100 >#
b11111111111111110000000000001100 A#
b11111111111111110000000000001100 F"
b11111111111111110000000000001100 q"
b11111111111111110000000000001100 ?#
b10 p#
b0xx o#
b10 j#
b0 Y
b0 {
b0 \#
b0 v#
b10000000000 Z
b10000000000 |
b10000000000 [#
b10000000000 t#
b10 k#
b11111111111111110000000000001000 @#
b11 j$
b1 +$
1'%
1X
1[
#40000
0'%
0X
0[
#45000
0%$
0s#
1&$
1($
b11111111111111110000000000010000 m
b11111111111111110000000000010000 H"
b11111111111111110000000000010000 >#
b11111111111111110000000000010000 A#
b11111111111111110000000000010000 F"
b11111111111111110000000000010000 q"
b11111111111111110000000000010000 ?#
1x
b111 V
1v
b100 e#
b100 a#
b11111111111111110000000000001100 @#
b11 p#
b0x o#
b111 j#
bx Y
bx {
bx \#
bx v#
bx Z
bx |
bx [#
bx t#
b11 k#
b101101 #%
1o$
0Y$
b101101 "%
1n$
0X$
b101101 !%
1m$
0W$
b101101 ~$
1l$
0V$
b100 j$
b1 *$
1'%
1X
1[
#50000
0'%
0X
0[
#55000
b0 q
b0 }
b0 3"
b0 M"
b0 ."
b0 a
b0 $"
b0 M#
b101 e#
b101 a#
b11111111111111110000000000010100 m
b11111111111111110000000000010100 H"
b11111111111111110000000000010100 >#
b11111111111111110000000000010100 A#
b11111111111111110000000000010100 F"
b11111111111111110000000000010100 q"
b11111111111111110000000000010100 ?#
b100 p#
b0 o#
b100 k#
b11111111111111110000000000010000 @#
b101 j$
1'%
1X
1[
#60000
0'%
0X
0[
#65000
b11111111111111110000000000011000 m
b11111111111111110000000000011000 H"
b11111111111111110000000000011000 >#
b11111111111111110000000000011000 A#
b11111111111111110000000000011000 F"
b11111111111111110000000000011000 q"
b11111111111111110000000000011000 ?#
b110 e#
b110 a#
b11111111111111110000000000010100 @#
b101 p#
b101 k#
b110 j$
1'%
1X
1[
#70000
0'%
0X
0[
#75000
b111 e#
b111 a#
b11111111111111110000000000011100 m
b11111111111111110000000000011100 H"
b11111111111111110000000000011100 >#
b11111111111111110000000000011100 A#
b11111111111111110000000000011100 F"
b11111111111111110000000000011100 q"
b11111111111111110000000000011100 ?#
b110 p#
b110 k#
b11111111111111110000000000011000 @#
b111 j$
1'%
1X
1[
#80000
0'%
0X
0[
#85000
b11111111111111110000000000100000 m
b11111111111111110000000000100000 H"
b11111111111111110000000000100000 >#
b11111111111111110000000000100000 A#
b11111111111111110000000000100000 F"
b11111111111111110000000000100000 q"
b11111111111111110000000000100000 ?#
b1000 e#
b1000 a#
b11111111111111110000000000011100 @#
b111 p#
b111 k#
b1000 j$
1'%
1X
1[
#90000
0'%
0X
0[
#95000
b1 `#
b1001 e#
b1001 a#
b11111111111111110000000000100100 m
b11111111111111110000000000100100 H"
b11111111111111110000000000100100 >#
b11111111111111110000000000100100 A#
b11111111111111110000000000100100 F"
b11111111111111110000000000100100 q"
b11111111111111110000000000100100 ?#
b1000 p#
b1000 k#
b11111111111111110000000000100000 @#
b1001 j$
1'%
1X
1[
#100000
0'%
0X
0[
#105000
1u#
0&$
0}#
b11111111111111110000000000101000 m
b11111111111111110000000000101000 H"
b11111111111111110000000000101000 >#
b11111111111111110000000000101000 A#
b11111111111111110000000000101000 F"
b11111111111111110000000000101000 q"
b11111111111111110000000000101000 ?#
0x
b1 V
0z
b1010 e#
b111 `#
b1010 a#
b11111111111111110000000000100100 @#
b1001 p#
b1 j#
b1001 k#
b1010 j$
1'%
1X
1[
#110000
0'%
0X
0[
#115000
0u#
0s#
1&$
1}#
1x
b111 V
1z
b1011 e#
b1011 a#
b11111111111111110000000000101100 m
b11111111111111110000000000101100 H"
b11111111111111110000000000101100 >#
b11111111111111110000000000101100 A#
b11111111111111110000000000101100 F"
b11111111111111110000000000101100 q"
b11111111111111110000000000101100 ?#
b1010 p#
b111 j#
b1010 k#
b11111111111111110000000000101000 @#
b1110011 }$
b1011 j$
1'%
1X
1[
#120000
0'%
0X
0[
#125000
b11111111111111110000000000110000 m
b11111111111111110000000000110000 H"
b11111111111111110000000000110000 >#
b11111111111111110000000000110000 A#
b11111111111111110000000000110000 F"
b11111111111111110000000000110000 q"
b11111111111111110000000000110000 ?#
b1100 e#
b1100 a#
b11111111111111110000000000101100 @#
b1011 p#
b1011 k#
b1100 j$
1'%
1X
1[
#130000
0'%
0X
0[
#135000
b1101 e#
b1101 a#
b11111111111111110000000000110100 m
b11111111111111110000000000110100 H"
b11111111111111110000000000110100 >#
b11111111111111110000000000110100 A#
b11111111111111110000000000110100 F"
b11111111111111110000000000110100 q"
b11111111111111110000000000110100 ?#
b1100 p#
b1100 k#
b11111111111111110000000000110000 @#
b1101 j$
1'%
1X
1[
#140000
0'%
0X
0[
